<?xml version="1.0" encoding="UTF-8" standalone="no"?>
<!DOCTYPE svg PUBLIC "-//W3C//DTD SVG 1.1//EN" "http://www.w3.org/Graphics/SVG/1.1/DTD/svg11.dtd">
<svg width="100%" height="100%" viewBox="0 0 16 9" version="1.1" xmlns="http://www.w3.org/2000/svg" xmlns:xlink="http://www.w3.org/1999/xlink" xml:space="preserve" xmlns:serif="http://www.serif.com/" style="fill-rule:evenodd;clip-rule:evenodd;stroke-linejoin:round;stroke-miterlimit:2;">
    <g transform="matrix(1,0,0,1,-425.257,-63.8098)">
        <g transform="matrix(1,0,0,1,405,0)">
            <g transform="matrix(1,0,0,1,35.7432,67.4468)">
                <path d="M0,1.147L0,-0.001L-12.033,-0.001C-11.641,-0.603 -10.751,-2.565 -10.751,-3.219C-10.751,-3.429 -10.882,-3.637 -11.117,-3.637C-11.353,-3.637 -11.563,-3.271 -11.667,-3.114C-12.479,-1.912 -13.682,-0.628 -14.937,0.104C-15.095,0.182 -15.486,0.365 -15.486,0.575C-15.486,0.781 -15.095,0.964 -14.937,1.042C-13.682,1.774 -12.479,3.056 -11.667,4.259C-11.563,4.418 -11.353,4.784 -11.117,4.784C-10.882,4.784 -10.751,4.575 -10.751,4.365C-10.751,3.71 -11.641,1.749 -12.033,1.147L0,1.147Z" style="fill:white;fill-rule:nonzero;"/>
            </g>
        </g>
    </g>
</svg>
