<?xml version="1.0" encoding="UTF-8" standalone="no"?>
<!DOCTYPE svg PUBLIC "-//W3C//DTD SVG 1.1//EN" "http://www.w3.org/Graphics/SVG/1.1/DTD/svg11.dtd">
<svg width="100%" height="100%" viewBox="0 0 42 23" version="1.1" xmlns="http://www.w3.org/2000/svg" xmlns:xlink="http://www.w3.org/1999/xlink" xml:space="preserve" xmlns:serif="http://www.serif.com/" style="fill-rule:evenodd;clip-rule:evenodd;stroke-linejoin:round;stroke-miterlimit:2;">
    <g transform="matrix(1,0,0,1,-864.685,-173.136)">
        <g transform="matrix(2.66667,0,0,2.66667,0,0)">
            <g transform="matrix(1,0,0,1,324.257,69.71)">
                <path d="M0,-1.147L0,0.001L12.033,0.001C11.641,0.603 10.751,2.565 10.751,3.219C10.751,3.429 10.882,3.637 11.117,3.637C11.353,3.637 11.563,3.271 11.667,3.114C12.479,1.912 13.682,0.628 14.937,-0.104C15.095,-0.182 15.486,-0.365 15.486,-0.575C15.486,-0.781 15.095,-0.964 14.937,-1.042C13.682,-1.774 12.479,-3.056 11.667,-4.259C11.563,-4.418 11.353,-4.784 11.117,-4.784C10.882,-4.784 10.751,-4.575 10.751,-4.365C10.751,-3.71 11.641,-1.749 12.033,-1.147L0,-1.147Z" style="fill:white;fill-rule:nonzero;"/>
            </g>
        </g>
    </g>
</svg>
